{
	"blog": {
		"kind": "blogger#blog",
		"id": "3213900",
		"name": "Blogger Developers Network",
		"description": "The official Blogger Developers Network weblog.",
		"published": "2007-02-09T10:13:10-08:00",
		"updated": "2012-04-15T19:38:01-07:00",
		"url": "http://code.blogger.com/",
		"selfLink": "https://www.googleapis.com/blogger/v3/blogs/3213900",
		"posts": {
			"totalItems": 55,
			"selfLink": "https://www.googleapis.com/blogger/v3/blogs/3213900/posts"
		},
		"pages": {
			"totalItems": 1,
			"selfLink": "https://www.googleapis.com/blogger/v3/blogs/3213900/pages"
		},
		"locale": {
			"language": "en",
			"country": "US",
			"variant": ""
		}
	},
	"posts": {
		"kind": "blogger#postList",
		"nextPageToken": "CgkIChiAkceVjiYQ0b2SAQ",
		"prevPageToken": "CgkIChDBwrK3mCYQ0b2SAQ",
		"items": [
			{
				"kind": "blogger#post",
				"id": "7706273476706534553",
				"blog": {
					"id": "2399953"
				},
				"published": "2011-08-01T19:58:00.000Z",
				"updated": "2011-08-01T19:58:51.947Z",
				"url": "http://buzz.blogger.com/2011/08/latest-updates-august-1st.html",
				"selfLink": "https://www.googleapis.com/blogger/v3/blogs/2399953/posts/7706273476706534553",
				"title": "this is published post",
				"content": "elided for readability",
				"author": {
					"id": "401465483996",
					"displayName": "Brett Wiltshire",
					"url": "http://www.blogger.com/profile/01430672582309320414",
					"image": {
						"url": "http://4.bp.blogspot.com/_YA50adQ-7vQ/S1gfR_6ufpI/AAAAAAAAAAk/1ErJGgRWZDg/S45/brett.png"
					}
				},
				"replies": {
					"totalItems": "0",
					"selfLink": "https://www.googleapis.com/blogger/v3/blogs/2399953/posts/7706273476706534553/comments"
				},
				"status": "live"
			},
			{
				"kind": "blogger#post",
				"id": "7448938485538845994",
				"blog": {
					"id": "2399953"
				},
				"published": "2011-08-01T19:58:00.000Z",
				"updated": "2011-08-01T19:58:51.947Z",
				"url": "http://buzz.blogger.com/2011/08/latest-updates-august-1st.html",
				"selfLink": "https://www.googleapis.com/blogger/v3/blogs/2399953/posts/7706273476706534553",
				"title": "For checking",
				"content": "elided for readability",
				"author": {
					"id": "401465483996",
					"displayName": "Brett Wiltshire",
					"url": "http://www.blogger.com/profile/01430672582309320414",
					"image": {
						"url": "http://4.bp.blogspot.com/_YA50adQ-7vQ/S1gfR_6ufpI/AAAAAAAAAAk/1ErJGgRWZDg/S45/brett.png"
					}
				},
				"replies": {
					"totalItems": "0",
					"selfLink": "https://www.googleapis.com/blogger/v3/blogs/2399953/posts/7706273476706534553/comments"
				},
				"status": "draft"
			},
			{
				"kind": "blogger#post",
				"id": "6069922188027612413",
				"blog": {
					"id": "2399953"
				},
				"published": "2011-08-01T19:58:00.000Z",
				"updated": "2011-08-01T19:58:51.947Z",
				"url": "http://buzz.blogger.com/2011/08/latest-updates-august-1st.html",
				"selfLink": "https://www.googleapis.com/blogger/v3/blogs/2399953/posts/7706273476706534553",
				"title": "Model updates",
				"content": "elided for readability",
				"author": {
					"id": "401465483996",
					"displayName": "Brett Wiltshire",
					"url": "http://www.blogger.com/profile/01430672582309320414",
					"image": {
						"url": "http://4.bp.blogspot.com/_YA50adQ-7vQ/S1gfR_6ufpI/AAAAAAAAAAk/1ErJGgRWZDg/S45/brett.png"
					}
				},
				"replies": {
					"totalItems": "0",
					"selfLink": "https://www.googleapis.com/blogger/v3/blogs/2399953/posts/7706273476706534553/comments"
				},
				"status": "draft"
			}
		]
	},
	"post": {
		"kind": "blogger#post",
		"id": "7706273476706534553",
		"blog": {
			"id": "2399953"
		},
		"published": "2011-08-01T19:58:00.000Z",
		"updated": "2011-08-01T19:58:51.947Z",
		"url": "http://buzz.blogger.com/2011/08/latest-updates-august-1st.html",
		"selfLink": "https://www.googleapis.com/blogger/v3/blogs/2399953/posts/7706273476706534553",
		"title": "Latest updates, August 1st",
		"content": "elided for readability",
		"author": {
			"id": "401465483996",
			"displayName": "Brett Wiltshire",
			"url": "http://www.blogger.com/profile/01430672582309320414",
			"image": {
				"url": "http://4.bp.blogspot.com/_YA50adQ-7vQ/S1gfR_6ufpI/AAAAAAAAAAk/1ErJGgRWZDg/S45/brett.png"
			}
		},
		"replies": {
			"totalItems": "0",
			"selfLink": "https://www.googleapis.com/blogger/v3/blogs/2399953/posts/7706273476706534553/comments"
		}
	},
	"comments": {
		"kind": "blogger#commentList",
		"nextPageToken": "CgkIFBDwjvDXlyYQ0b2SARj9mZe9n8KsnlQ",
		"prevPageToken": "CgkIFBisvMGRlyYQ0b2SARj9mZe9n8KsnlQ",
		"items": [
			{
				"kind": "blogger#comment",
				"id": "9200761938824362519",
				"post": {
					"id": "6069922188027612413"
				},
				"blog": {
					"id": "2399953"
				},
				"published": "2011-07-28T19:19:57.740Z",
				"updated": "2011-07-28T21:29:42.015Z",
				"selfLink": "https://www.googleapis.com/blogger/v3/blogs/2399953/posts/6069922188027612413/comments/9200761938824362519",
				"content": "elided",
				"author": {
					"id": "530579030283",
					"displayName": "elided",
					"url": "elided",
					"image": {
						"url": "elided"
					}
				}
			},
			{
				"kind": "blogger#comment",
				"id": "400101178920857170",
				"post": {
					"id": "6069922188027612413"
				},
				"blog": {
					"id": "2399953"
				},
				"published": "2011-07-28T19:19:57.740Z",
				"updated": "2011-07-28T21:29:42.015Z",
				"selfLink": "https://www.googleapis.com/blogger/v3/blogs/2399953/posts/6069922188027612413/comments/9200761938824362519",
				"content": "elided",
				"author": {
					"id": "530579030283",
					"displayName": "elided",
					"url": "elided",
					"image": {
						"url": "elided"
					}
				}
			}
		]
	}
}
